O&M Reference,LocusId,ComponentName,ComponentType,Size,MeterRef,SalesforceRef
IN-305,2673520,ICR1-Trafo,OTH,,,
IN-305,2673521,ICR2-Trafo,OTH,,,
IN-305,2663450,Incomer MFM 01,OTH,,,
IN-305,2662961,Incomer MFM 02,OTH,,,
IN-305,2662780,INV 01,INV,204,,
IN-305,2662781,INV 02,INV,224.4,,
IN-305,2662782,INV 03,INV,224.4,,
IN-305,2662783,INV 04,INV,224.4,,
IN-305,2662852,INV 05,INV,224.4,,
IN-305,2662784,INV 06,INV,224.4,,
IN-305,2662826,INV 07,INV,224.4,,
IN-305,2662853,INV 08,INV,224.4,,
IN-305,2662854,INV 09,INV,224.4,,
IN-305,2662827,INV 10,INV,224.4,,
IN-305,2662828,INV 11,INV,224.4,,
IN-305,2662829,INV 12,INV,224.4,,
IN-305,2662830,INV 13,INV,224.4,,
IN-305,2662831,INV 14,INV,224.4,,
IN-305,2662832,INV 15,INV,224.4,,
IN-305,2662833,INV 16,INV,224.4,,
IN-305,2662834,INV 17,INV,224.4,,
IN-305,2662835,INV 18,INV,224.4,,
IN-305,2662836,INV 19,INV,224.4,,
IN-305,2662837,INV 20,INV,224.4,,
IN-305,2662838,INV 21,INV,224.4,,
IN-305,2662839,INV 22,INV,224.4,,
IN-305,2662840,INV 23,INV,224.4,,
IN-305,2662841,INV 24,INV,224.4,,
IN-305,2662842,INV 25,INV,224.4,,
IN-305,2662843,INV 26,INV,224.4,,
IN-305,2662844,INV 27,INV,224.4,,
IN-305,2662845,INV 28,INV,224.4,,
IN-305,2662846,INV 29,INV,224.4,,
IN-305,2662847,INV 30,INV,224.4,,
IN-305,2662848,INV 31,INV,224.4,,
IN-305,2662849,INV 32,INV,224.4,,
IN-305,2662850,INV 33,INV,224.4,,
IN-305,2662885,INV 34,INV,224.4,,
IN-305,2662870,INV 35,INV,222,,
IN-305,2662866,INV 36,INV,220.2,,
IN-305,2662871,INV 37,INV,224.4,,
IN-305,2662876,INV 38,INV,224.4,,
IN-305,2662886,INV 39,INV,214.2,,
IN-305,2662856,INV 40,INV,224.4,,
IN-305,2662884,INV 41,INV,227.7,,
IN-305,2662888,INV 42,INV,227.7,,
IN-305,2662877,INV 43,INV,227.7,,
IN-305,2662887,INV 44,INV,227.7,,
IN-305,2662882,INV 45,INV,227.7,,
IN-305,2662855,INV 46,INV,227.7,,
IN-305,2662874,INV 47,INV,217.8,,
IN-305,2662860,INV 48,INV,217.8,,
IN-305,2662869,INV 49,INV,217.8,,
IN-305,2662864,INV 50,INV,207.9,,
IN-305,2662880,INV 51,INV,217.8,,
IN-305,2662862,INV 52,INV,207.9,,
IN-305,2662867,INV 53,INV,207.9,,
IN-305,2662879,INV 54,INV,207.9,,
IN-305,2662883,INV 55,INV,228.6,,
IN-305,2662875,INV 56,INV,228.6,,
IN-305,2662878,INV 57,INV,221.1,,
IN-305,2662861,INV 58,INV,221.1,,
IN-305,2662859,INV 59,INV,221.1,,
IN-305,2662881,INV 60,INV,221.1,,
IN-305,2662865,INV 61,INV,217.8,,
IN-305,2662857,INV 62,INV,217.8,,
IN-305,2662792,INV 63,INV,217.8,,
IN-305,2662868,INV 64,INV,217.8,,
IN-305,2662872,INV 65,INV,220.2,,
IN-305,2662873,INV 66,INV,220.2,,
IN-305,2662858,INV 67,INV,219.6,,
IN-305,2668158,Outgoing MFM,MFM,15030,IN-305B,a0T2x000000G6A0EAK
IN-305,2662778,Plant Meter-ICR 1,OTH,,,
IN-305,2662791,Plant Meter-ICR2,OTH,,,
IN-305,2662966,Pyranometer,WMS,,,
IN-305,2668762,Weather Sensors,WMS,,,
