﻿ComponentType,MPName,CSName
WMS2,Rec_ID,Rec_ID
WMS2,AvgSMP10,Irradiance
WMS2,AvgHamb,Humidity
WMS,AvgGSi00,Irradiance
WMS,AvgTamb,Ambient_Temperature
WMS,AvgTmod,Module_Temperature
MFM,I-A_M1,AC_Phase_A_Current
MFM,I-B_M1,AC_Phase_B_Current
MFM,I-C_M1,AC_Phase_C_Current
MFM,V-AB_M1,AC_Phase_A_B_Voltage
MFM,V-BC_M1,AC_Phase_B_C_Voltage
MFM,V-CA_M1,AC_Phase_C_A_Voltage
MFM,V-LL-Avg_M1,V-LL_LV
MFM,V-AN_M1,AC_Phase_A_N_Voltage
MFM,V-BN_M1,AC_Phase_B_N_Voltage
MFM,V-CN_M1,AC_Phase_C_N_Voltage
MFM,Act_Pwr-A_M1,AC_Power_A
MFM,Act_Pwr-B_M1,AC_Power_B
MFM,Act_Pwr-C_M1,AC_Power_C
MFM,Act_Pwr-Tot_M1,AC_Power
MFM,Rec_Pwr-A_M1,AC_Phase_A_Reactive_Power
MFM,Rec_Pwr-B_M1,AC_Phase_B_Reactive_Power
MFM,Rec_Pwr-C_M1,AC_Phase_C_Reactive_Power
MFM,Rec_Pwr-Tot_M1,AC_Reactive_Power
MFM,Aprn_Pwr-A_M1,AC_Phase_A_Apparent_Power
MFM,Aprn_Pwr-B_M1,AC_Phase_B_Apparent_Power
MFM,Aprn_Pwr-C_M1,AC_Phase_C_Apparent_Power
MFM,Aprn_Pwr-Tot_M1,AC_Apparent_Power
MFM,Pwr_Fac-A_M1,AC_Phase_A_Power_Factor
MFM,Pwr_Fac-B_M1,AC_Phase_B_Power_Factor
MFM,Pwr_Fac-C_M1,AC_Phase_C_Power_Factor
MFM,Pwr_Fac-Tot_M1,Power_Factor
MFM,Freq_M1,Frequency
MFM,Acc_E_Reset-Date_M1,Acc_E_Reset-Date_LV
MFM,Act_E-Del_M1,Import_Meter_Reading
MFM,Act_E-Recv_M1,Export_Meter_Reading
MFM,Act_E-Del+Rec_M1,Act_E-Del+Rec_LV
MFM,Act_E-Del-Rec_M1,Act_E-Del-Rec_LV
MFM,Reac_E-Del_M1,AC_Reactive_Delivered
MFM,Reac_E-Recv_M1,AC_Reactive_Received
MFM,Reac_E-Del+Rec_M1,Reac_E-Del+Rec_LV
MFM,Reac_E-Del-Rec_M1,Reac_E-Del-Rec_LV
MFM,App_E-Del_M1,AC_Apparent_Delivered
MFM,App_E-Recv_M1,AC_Apparent_Received
MFM,App_E-Del+Rec_M1,App_E-Del+Rec_LV
MFM,App_E-Del-Rec_M1,App_E-Del-Rec_LV
MFM,Freq1 Cycle_M1,Freq1 Cycle_LV
MFM,THD_I-A_M1,THD_Current_A
MFM,THD_I-B_M1,THD_Current_B
MFM,THD_I-C_M1,THD_Current_C
MFM,THD_V-AB_M1,THD_Voltage_A_B
MFM,THD_V-BC_M1,THD_Voltage_B_C
MFM,THD_V-CA_M1,THD_Voltage_C_A
