﻿O&M Reference,MeterRef,SalesforceRef,Size,LocusId,ComponentName,ComponentType,siteId
MY-478,MY-478A,a0T2x0000004aTI,21.6,2663745,PV Meter,MFM,3894603
MY-478,MY-478A,a0T2x0000004aTI,21.6,2663746,Inverter 01,INV,3894603
MY-479,MY-479A,a0T2x000000FuvS,54,2663821,PV Meter,MFM,3894865
MY-479,MY-479A,a0T2x000000FuvS,54,2663822,Inverter 01,INV,3894865
MY-500,MY-500A,a0T2x000000Fuud,66.6,2668114,PV Meter,MFM,3898446
MY-500,MY-500A,a0T2x000000Fuud,66.6,2668115,Inverter 01,INV,3898446
MY-501,MY-501A,a0T2x000000Fuvr,57.6,2668216,PV Meter,MFM,3898463
MY-501,MY-501A,a0T2x000000Fuvr,57.6,2668218,Inverter 01,INV,3898463
MY-502,MY-502A,a0T2x000000FuyB,31.5,2668223,PV Meter,MFM,3898464
MY-502,MY-502A,a0T2x000000FuyB,31.5,2668224,Inverter 01,INV,3898464
MY-503,MY-503A,a0T2x000000Fuxs,45,2668874,PV Meter,MFM,3898992
MY-503,MY-503A,a0T2x000000Fuxs,45,2668875,Inverter 01,INV,3898992
MY-504,MY-504A,a0T2x0000004EpZ,49.5,2668883,PV Meter,MFM,3898995
MY-504,MY-504A,a0T2x0000004EpZ,49.5,2668884,Inverter 01,INV,3898995
MY-505,MY-505A,a0T2x000000Fuw5,30.15,2668880,PV Meter,MFM,3898994
MY-505,MY-505A,a0T2x000000Fuw5,30.15,2668881,Inverter 01,INV,3898994
MY-506,MY-506A,a0T2x0000004Cwv,71.1,2669644,PV Meter,MFM,3899684
MY-506,MY-506A,a0T2x0000004Cwv,71.1,2669645,Inverter 01,INV,3899684
MY-507,MY-507A,a0T2x000000Fuu1,58.5,2669646,PV Meter,MFM,3899685
MY-507,MY-507A,a0T2x000000Fuu1,58.5,2669647,Inverter 01,INV,3899685
MY-508,MY-508A,a0T2x000000Fuvb,50.85,2669966,PV Meter,MFM,3899846
MY-508,MY-508A,a0T2x000000Fuvb,50.85,2669967,Inverter 01,INV,3899846
MY-509,MY-509A,a0T2x000000Fuwp,64.8,2671056,PV Meter,MFM,3900484
MY-509,MY-509A,a0T2x000000Fuwp,64.8,2671057,Inverter 01,INV,3900484
MY-510,MY-510A,a0T2x000000Fuyc,70.2,2669968,PV Meter,MFM,3899847
MY-510,MY-510A,a0T2x000000Fuyc,70.2,2669969,Inverter 01,INV,3899847
MY-511,MY-511A,a0T2x000000FuyW,59.4,2669970,PV Meter,MFM,3899848
MY-511,MY-511A,a0T2x000000FuyW,59.4,2669971,Inverter 01,INV,3899848
MY-512,MY-512A,a0T2x000000FuyH,52.65,2670296,PV Meter,MFM,3900208
MY-512,MY-512A,a0T2x000000FuyH,52.65,2670297,Inverter 01,INV,3900208
MY-513,MY-513A,a0T2x000000Fuyb,28.8,2670537,PV Meter,MFM,3900471
MY-513,MY-513A,a0T2x000000Fuyb,28.8,2670538,Inverter 01,INV,3900471
MY-513,MY-513A,a0T2x000000Fuyb,28.8,2670539,Sensor,WMS,3900471
MY-514,MY-514A,a0T2x000000Fuu5,58.05,2671884,PV Meter,MFM,3900709
MY-514,MY-514A,a0T2x000000Fuu5,58.05,2671885,Inverter 01,INV,3900709
MY-515,MY-515A,a0T2x0000004N0p,34.65,2671880,PV Meter,MFM,3900707
MY-515,MY-515A,a0T2x0000004N0p,34.65,2671881,Inverter 01,INV,3900707
MY-516,MY-516A,a0T2x000000Fusa,71.1,2671882,PV Meter,MFM,3900708
MY-516,MY-516A,a0T2x000000Fusa,71.1,2671883,Inverter 01,INV,3900708
MY-517,MY-517A,a0T2x000000Fuwz,30.6,2672155,PV Meter,MFM,3900785
MY-517,MY-517A,a0T2x000000Fuwz,30.6,2672156,Inverter 01,INV,3900785
,,,,,,,
,,,,,,,
,,,,,,,
,,,,,,,
,,,,,,,
,,,,,,,
,,,,,,,
,,,,,,,
,,,,,,,
,,,,,,,
,,,,,,,
,,,,,,,
,,,,,,,
,,,,,,,
,,,,,,,
,,,,,,,
,,,,,,,
,,,,,,,
,,,,,,,
,,,,,,,
,,,,,,,
,,,,,,,
,,,,,,,
,,,,,,,
,,,,,,,
,,,,,,,
,,,,,,,
,,,,,,,
,,,,,,,
,,,,,,,
,,,,,,,
,,,,,,,
,,,,,,,
,,,,,,,
,,,,,,,
,,,,,,,
,,,,,,,
,,,,,,,
,,,,,,,
,,,,,,,
,,,,,,,
,,,,,,,
,,,,,,,
,,,,,,,
,,,,,,,
,,,,,,,
,,,,,,,
,,,,,,,
,,,,,,,
,,,,,,,
,,,,,,,
,,,,,,,
,,,,,,,
,,,,,,,
,,,,,,,
,,,,,,,
,,,,,,,
,,,,,,,
,,,,,,,
,,,,,,,
,,,,,,,
,,,,,,,
,,,,,,,
,,,,,,,
,,,,,,,
,,,,,,,
,,,,,,,
,,,,,,,
,,,,,,,
,,,,,,,
,,,,,,,
,,,,,,,
,,,,,,,
,,,,,,,
,,,,,,,
,,,,,,,
